{
  "version": "1.0.0-*",

  "dependencies": {
    "NETStandard.Library": "1.6.0",
    "System.ComponentModel.Annotations": "4.1.0",
    "AutoMapper": "6.0.2",
    "Microsoft.EntityFrameworkCore.SqlServer": "1.1.1",
    "Microsoft.EntityFrameworkCore.Tools": "1.1.0",
    "Microsoft.Extensions.Configuration.Abstractions": "1.1.1",
    "Microsoft.AspNetCore.Mvc.Abstractions": "1.1.2",
    "Microsoft.AspNetCore.Mvc.Core": "1.1.2"
  },

  "frameworks": {
    "netcoreapp1.0": {
      "imports": [
        "dotnet5.6",
        "portable-net45+win8"
      ]
    }
  }
}
